<svg width="179" height="620" viewBox="0 0 179 620" fill="none" xmlns="http://www.w3.org/2000/svg">
<mask id="mask0" mask-type="alpha" maskUnits="userSpaceOnUse" x="0" y="0" width="179" height="620">
<rect width="179" height="620" fill="white"/>
</mask>
<g mask="url(#mask0)">
<path fill-rule="evenodd" clip-rule="evenodd" d="M153 76.5C153 34.2502 187.25 0 229.5 0C271.75 7.62939e-06 306 34.2502 306 76.5C306 115.295 277.122 147.345 239.69 152.327C240.55 156.92 241 161.658 241 166.5C241 178.461 238.255 189.781 233.36 199.864C267.498 207.543 293 238.043 293 274.5C293 316.44 259.25 350.497 217.429 350.994C219.101 356.536 220 362.413 220 368.5C220 378.314 217.663 387.582 213.516 395.778C241.96 407.415 262 435.367 262 468C262 485.362 256.327 501.4 246.734 514.36C263.088 524.379 274 542.415 274 563C274 594.48 248.48 620 217 620C185.52 620 160 594.48 160 563C160 556.068 161.237 549.425 163.504 543.279C130.368 534.279 106 503.985 106 468C106 448.854 112.899 431.318 124.346 417.744C109.001 406.771 99 388.803 99 368.5C99 338.939 120.201 314.33 148.227 309.048C142.965 298.671 140 286.932 140 274.5C140 262.539 142.745 251.219 147.64 241.136C113.502 233.457 88 202.957 88 166.5C88 127.705 116.878 95.6549 154.31 90.6727C153.45 86.0799 153 81.3425 153 76.5ZM118.5 42C111.596 42 106 47.5964 106 54.5C106 61.4036 111.596 67 118.5 67C125.404 67 131 61.4036 131 54.5C131 47.5965 125.404 42 118.5 42ZM46 116C31.0883 116 19 128.088 19 143C19 157.912 31.0883 170 46 170C60.9117 170 73 157.912 73 143C73 128.088 60.9117 116 46 116ZM33 409C33 397.954 41.9543 389 53 389C64.0457 389 73 397.954 73 409C73 420.046 64.0457 429 53 429C41.9543 429 33 420.046 33 409ZM86.5 270C79.5964 270 74 275.596 74 282.5C74 289.404 79.5964 295 86.5 295C93.4036 295 99 289.404 99 282.5C99 275.596 93.4036 270 86.5 270ZM88 534.5C88 527.596 93.5964 522 100.5 522C107.404 522 113 527.596 113 534.5C113 541.404 107.404 547 100.5 547C93.5964 547 88 541.404 88 534.5Z" fill="#E0D0DE"/>
</g>
</svg>
